SlNo,Transaction Date,TRANSACTION_ID,OPERATOR_TXN_ID,CLASS,PG NAME,REFUND_AMOUNT,REFUND_DATE,SUB_AGENT_USER_ID,MASTER_USER_ID
1,05-10-2020,100002413482679,ianupam00011:kfwg3enn,2S,ANUPAM,307.70,05-10-2020,ianupam00011,ianupam00000
2,05-10-2020,100002413630005,ianupam00031:kfwfu2k1,SL,ANUPAM,467.70,05-10-2020,ianupam00031,ianupam00000
3,05-10-2020,100002413465553,ianupam00039:kfwe7sf2,SL,ANUPAM,937.70,05-10-2020,ianupam00039,ianupam00000
4,05-10-2020,100002413465572,ianupam00039:kfwedsz4,SL,ANUPAM,477.70,05-10-2020,ianupam00039,ianupam00000
5,05-10-2020,100002413465648,ianupam00039:kfwf77t8,SL,ANUPAM,1092.70,05-10-2020,ianupam00039,ianupam00000
6,05-10-2020,100002413465656,ianupam00039:kfwfa8t7,SL,ANUPAM,1092.70,05-10-2020,ianupam00039,ianupam00000
7,05-10-2020,100002413481445,ianupam00045:kfwdtxbx,SL,ANUPAM,433.19,05-10-2020,ianupam00045,ianupam00000
8,05-10-2020,100002413481521,ianupam00045:kfwedhr2,SL,ANUPAM,845.15,05-10-2020,ianupam00045,ianupam00000
9,05-10-2020,100002413481554,ianupam00045:kfwes6wx,SL,ANUPAM,845.15,05-10-2020,ianupam00045,ianupam00000
10,05-10-2020,100002413481604,ianupam00045:kfwf16u6,SL,ANUPAM,845.15,05-10-2020,ianupam00045,ianupam00000
11,05-10-2020,100002413481673,ianupam00045:kfwfivlf,SL,ANUPAM,845.15,05-10-2020,ianupam00045,ianupam00000
12,05-10-2020,100002413491185,ianupam00122:kfwcdveq,3A,ANUPAM,860.40,05-10-2020,ianupam00122,ianupam00000
13,05-10-2020,100002413469497,ianupam00183:kfwc64eh,3A,ANUPAM,1505.40,05-10-2020,ianupam00183,ianupam00000
14,05-10-2020,100002413469512,ianupam00183:kfwcfumm,3A,ANUPAM,1505.40,05-10-2020,ianupam00183,ianupam00000
15,05-10-2020,100002413469546,ianupam00183:kfwcpvjn,3A,ANUPAM,1505.40,05-10-2020,ianupam00183,ianupam00000
